Count FCDS Cases — count_fcds • fcds
…
    A grouped data frame with counts. The output groups includes the
union of the groups of the original input data, the groups specified by
the columns indicated in ..., and the default_groups added by
count_fcds() (modifyable by the default_groups argument).

All factor levels will be modified to include only those levels that appear
in the final output across all groups.

    Examples

fcds_example %>%
  dplyr::filter(county_name == "Pinellas") %>%
  count_fcds(cancer_site_group, sex = "Male")
#> # A tibble: 285 x 6
#> # Groups:   cancer_site_group, sex, year_group, year, age_group [285]
#>    cancer_site_group       sex   year_group year  age_group     n
#>    <fct>                   <fct> <fct>      <chr> <fct>     <int>
#>  1 Oral Cavity and Pharynx Male  1992-1996  1994  0 - 4         1
#>  2 Oral Cavity and Pharynx Male  1992-1996  1994  55 - 59       1
#>  3 Oral Cavity and Pharynx Male  1997-2001  1999  70 - 74       1
#>  4 Oral Cavity and Pharynx Male  2002-2006  2004  15 - 19       1
#>  5 Oral Cavity and Pharynx Male  2002-2006  2004  75 - 79       1
#>  6 Oral Cavity and Pharynx Male  2007-2011  2009  70 - 74       2
#>  7 Esophagus               Male  1987-1991  1989  70 - 74       1
#>  8 Esophagus               Male  1987-1991  1989  75 - 79       1
#>  9 Esophagus               Male  1997-2001  1999  65 - 69       1
#> 10 Esophagus               Male  2007-2011  2009  50 - 54       1
#> # … with 275 more rows
…
