Getting Started with the fcds Package • fcds
…
FCDS Constants

Lookup the values of variables in the imported data (referred to as a labels of the original data value) with fcds_const()

fcds_const(NULL)
#> Valid fcds_const() variables include: "year_group", "cancer_status", "cancer_site_group", "cancer_site_specific", "cancer_confirmation", "age_group", "race", "sex", "origin", "marital_status", "county_name", "state", "country", "birth_country", "birth_state", "primary_payer", "cancer_reporting_source", "cancer_ICDO3_conversion", "cancer_laterality", "cancer_grade", "cancer_ICDO3_behavior", "seer_stage_1977", "seer_stage_2000", "seer_stage_derived_1977", "seer_stage_derived_2000", "tobacco_cigarette", "tobacco_other", "tobacco_smokeless", "tobacco_nos", "moffitt_catchment"

fcds_const("cancer_status")
#> [1] "No evidence of tumor" "Evidence of tumor"    "Unknown"

If you supply full = TRUE, the original column name (name_original) and value from the FCDS data will be reported alongsize the cleaned column name (name_clean) and the value label used by the fcds package.

fcds_const("cancer_site_group", full = TRUE)
#> # A tibble: 41 x 4
#>    name_clean        name_original   value label                           
#>    <chr>             <chr>           <chr> <chr>                           
#>  1 cancer_site_group FCDS_Site_Group 0110  Oral Cavity and Pharynx         
#>  2 cancer_site_group FCDS_Site_Group 0011  Esophagus                       
#>  3 cancer_site_group FCDS_Site_Group 0012  Stomach                         
#>  4 cancer_site_group FCDS_Site_Group 0013  Small Intestine                 
#>  5 cancer_site_group FCDS_Site_Group 1422  Colon excluding Rectum          
#>  6 cancer_site_group FCDS_Site_Group 2324  Rectum and Rectosigmoid Junction
#>  7 cancer_site_group FCDS_Site_Group 0025  Anus, Anal Canal & Anorectum    
#>  8 cancer_site_group FCDS_Site_Group 2627  Liver and Intrahepatic Bile Duct
#>  9 cancer_site_group FCDS_Site_Group 0028  Gall Bladder                    
#> 10 cancer_site_group FCDS_Site_Group 0029  Other Biliary                   
#> # … with 31 more rows
…
fcds_vars("cancer")
#>  [1] "cancer_status"           "cancer_site_group"      
#>  [3] "cancer_site_specific"    "cancer_confirmation"    
#>  [5] "cancer_reporting_source" "cancer_laterality"      
#>  [7] "cancer_grade"            "cancer_ICDO3_histology" 
#>  [9] "cancer_ICDO3_behavior"   "cancer_ICDO3_morphology"
#> [11] "cancer_ICDO3_conversion"

These column names can be used in conjunction with dplyr::select(), or you can supply FCDS data to fcds_vars() using the .data argument to select matching columns.

fcds %>% select(fcds_vars("id", "demo"))
#> # A tibble: 8,062 x 11
#>    patient_id year_group year  age_group race  sex   origin marital_status
#>         <dbl> <fct>      <chr> <fct>     <fct> <fct> <fct>  <fct>         
#>  1      10001 1982-1986  1984  0 - 4     White Male  Hispa… Single, Separ…
#>  2      10002 1982-1986  1984  0 - 4     White Male  Hispa… Single, Separ…
#>  3      10003 1982-1986  1984  5 - 9     White Fema… Hispa… Single, Separ…
#>  4      10004 1982-1986  1984  5 - 9     Other Fema… Hispa… Single, Separ…
#>  5      10005 1982-1986  1984  10 - 14   Black Male  Hispa… Single, Separ…
#>  6      10006 1982-1986  1984  15 - 19   Black Fema… Unkno… Unknown       
#>  7      10007 1982-1986  1984  15 - 19   Other Male  Hispa… Single, Separ…
#>  8      10008 1982-1986  1984  15 - 19   White Fema… Hispa… Unknown       
#>  9      10009 1982-1986  1984  15 - 19   Black Fema… Non-H… Married; Unma…
#> 10      10010 1982-1986  1984  15 - 19   Other Male  Hispa… Single, Separ…
#> # … with 8,052 more rows, and 3 more variables: birth_country <fct>,
#> #   birth_state <fct>, primary_payer <fct>

fcds_vars(.data = fcds, "id", "icdo3")
#> # A tibble: 8,062 x 7
#>    patient_id year_group year  cancer_ICDO3_co… cancer_ICDO3_hi…
#>         <dbl> <fct>      <chr> <fct>            <chr>           
#>  1      10001 1982-1986  1984  Converted witho… 8010            
#>  2      10002 1982-1986  1984  Originally code… 8500            
#>  3      10003 1982-1986  1984  Converted witho… 8070            
#>  4      10004 1982-1986  1984  Originally code… 8263            
#>  5      10005 1982-1986  1984  Converted witho… 8140            
#>  6      10006 1982-1986  1984  Originally code… 8140            
#>  7      10007 1982-1986  1984  Originally code… 8140            
#>  8      10008 1982-1986  1984  Converted witho… 8500            
#>  9      10009 1982-1986  1984  Originally code… 8000            
#> 10      10010 1982-1986  1984  Originally code… 8140            
#> # … with 8,052 more rows, and 2 more variables: cancer_ICDO3_behavior <fct>,
#> #   cancer_ICDO3_morphology <chr>
…
